{
  "application": {
    "cogitate": {
      "engs": {
        "accounthubPage": {
          "url": "https://testapps.cogitate.us/engs/dashboard/accounthub/"
        },
        "riskQualifiersPage": {
          "questions": [
            "DOES ANY OF YOUR BUSINESS VEHICLE INVOLVE TRANSPORTING HAZARDOUS MATERIALS IN AN AMOUNT THAT REQUIRES PLACARDING UNDER THE HAZARDOUS MATERIALS TRANSPORTATION ACT?",
            "DOES YOUR BUSINESS INVOLVE TRANSPORTATION OF LPG, GASOLINE, EXPLOSIVES, OR OTHER KNOWN HAZARDOUS COMMODITIES?",
            "HAVE YOU BEING FILED FOR BANKRUPTCY OR LEGAL REORGANIZATION?",
            "DO YOU NEED COVERAGE FOR BODILY INJURY OR PROPERTY DAMAGE ARISING OUT OF THE DISCHARGE OF POLLUTANTS THAT ARE BEING TRANSPORTED OR TOWED BY, LOADED ONTO OR UNLOADED FROM, OR STORED, DISPOSED OF, TREATED OR PROCESSED IN OR UPON A COVERED AUTO?",
            "DOES YOUR HIRED AUTO EXPOSURE GENERATE MORE THAN 40% OF GROSS REVENUE?"
          ]
        },
        "bussinessInfoPage": {
          "agentNameList": [
            "Please Select",
            "Maria Fonseca",
            "Keri Plecki",
            "Marta Marusyak",
            "Deon Duff",
            "Karen Landt",
            "Taylor Lawlor",
            "Sandra Sanchez"
          ],
          "underwriterList": [
            "Please Select",
            "Renee Ranallo",
            "Cliff Dunigan",
            "Roman Hunter"
          ],
          "yearsList": [
            "Please Select",
            "2023",
            "2022",
            "2021",
            "2020",
            "2019",
            "2018",
            "2017",
            "2016",
            "2015",
            "2014",
            "2013",
            "2012",
            "2011",
            "2010",
            "2009",
            "2008",
            "2007",
            "2006",
            "2005",
            "2004",
            "2003",
            "2002",
            "2001",
            "2000",
            "1999",
            "1998",
            "1997",
            "1996",
            "1995",
            "1994",
            "1993"
          ],
          "agentName": "Keri Plecki",
          "underwriter": "Roman Hunter",
          "year": "2020"
        },
        "vehicleInfoPage": {
          "manualUploadOption": {
            "heading": "Manual Upload",
            "subheading": "For Manually Uploading Vehicle Details."
          },
          "classificationTypeLabel": "CLASSIFICATION TYPE*",
          "classificationTypeValue": "Trucks, Tractors And Trailers",
          "vehicleTypeLabel": "VEHICLE TYPE*",
          "vehicleVinLabel": "VEHICLE VIN",
          "yearLabel": "YEAR*",
          "modelLabel": "MODEL*",
          "sizeClassLabel": "SIZE CLASS*",
          "farthestDistanceLabel": "FARTHEST DISTANCE*",
          "exposureLabel": "EXPOSURE*",
          "tivFieldLabel": "TIV*",
          "vehicleInfoModalBoxHeading": "VEHICLE INFORMATION",
          "vehicleTypesdropdown": [
            "Select Vehicle Type",
            "Pick Up",
            "Cargo Van",
            "Coach Van",
            "Dump Truck",
            "Box Truck",
            "Tow Truck",
            "Tank Truck",
            "Flat Bed Truck",
            "Bucket/Crane Truck",
            "Truck Tractor",
            "Semi-Trailers",
            "Trailer",
            "Service Trailer",
            "Utility Trailer"
          ],
          "makesTankTruckDropdownList": [
            "Please Select Make",
            "Advance Mixer",
            "AM General",
            "Auto Car",
            "Bering",
            "Caterpillar",
            "Chevrolet",
            "Dina",
            "Dodge",
            "Ford",
            "GMC",
            "Hino",
            "International",
            "Isuzu",
            "Kenworth",
            "Komatsu",
            "Mack",
            "Marc",
            "Mercedes-Benz",
            "Mitsubushi",
            "Nissan",
            "Oshcosh",
            "Peterbilt",
            "RAM",
            "Sterling",
            "Toyota",
            "Volkswagen",
            "Volvo",
            "Western Star"
          ],
          "makeDumpTruckDropdownList": [
            "Please Select Make",
            "Advance Mixer",
            "AM General",
            "Auto Car",
            "Bering",
            "Caterpillar",
            "Chevrolet",
            "Dina",
            "Dodge",
            "Ford",
            "Freightliner",
            "Fuso",
            "GMC",
            "Hino",
            "International",
            "Isuzu",
            "Kenworth",
            "Komatsu",
            "Mack",
            "Marc",
            "Mercedes-Benz",
            "Mitsubushi",
            "Nissan",
            "Oshcosh",
            "Peterbilt",
            "RAM",
            "Sterling",
            "Toyota",
            "Volkswagen",
            "Volvo",
            "Western Star"
          ],
          "years": [
            "Please Select",
            "2025",
            "2024",
            "2023",
            "2022",
            "2021",
            "2020",
            "2019",
            "2018",
            "2017",
            "2016",
            "2015",
            "2014",
            "2013",
            "2012",
            "2011",
            "2010",
            "2009",
            "2008",
            "2007",
            "2006",
            "2005",
            "2004",
            "2003",
            "2002",
            "2001",
            "2000",
            "1999",
            "1998",
            "1997",
            "1996",
            "1995",
            "1994",
            "1993"
          ],
          "sizeClassesList": [
            "Select Size Class",
            "Light Duty (Class 1-3)",
            "Medium Duty (Class 4-6)",
            "Heavy Duty (Class 7-8)"
          ],
          "farthestDistanceList": [
            "Select Farthest Distance",
            "Long Haul > 500 mi Radius",
            "Regional 100-500 mi Radius"
          ],
          "exposureDropdownList": [
            "Select Exposure",
            "Actual Cash Value",
            "Stated Amount Basis"
          ],
          "lineHolderNameDropdownList": [
            "Please Select",
            "Mitsubishi HC Capital America, Inc. ISAOA",
            "ENGS Finance Company 1",
            "ENGS Finance Company 2",
            "ENGS Finance Company 3",
            "Other"
          ],
          "pdCarrierDropdownList": [
            "Select Carrier",
            "GAIC",
            "ASSURANT",
            "NOT APPLICABLE"
          ],
          "pdCarrier": "GAIC",
          "completedInformationHeaders": [
            "MAKE/MODEL/YEAR",
            "VIN",
            "VEHICLE TYPE",
            "CARRIER",
            "Actions",
            "(+)"
          ],
          "vehicleSavedMessage": "Vehicles saved successfully"
        },
        "coverageInfoPage": {
          "gaicdeductiblePrice": [
            "$1,000",
            "$2,500",
            "$5,000"
          ],
          "assurantdeductiblePrice": [
            "$1,000",
            "$2,500",
            "$5,000"
          ],
          "deductiblePrice1": "$2,500"
        },
        "summaryPage": {
          "vehicleHeadings": [
            "YEAR/MAKE/MODEL",
            "VIN",
            "CLASSIFICATION",
            "VEHICLE TYPE",
            "CARRIER",
            "TIV",
            "ANNUAL PREMIUM",
            "MONTHLY PREMIUM",
            "(+)"
          ]
        }
      },
      "toga": {
        "riskQualifiersPage": {
          "questions": [
            "Has the insured filed for bankruptcy in the past 5 years?*",
            "During the last five (5) years has any applicant been indicted for or convicted of any degree of crime of fraud, bribery, arson or any other arson related crime in connection with this or any other property?*",
            "Does applicant have tow trucks or perform towing?*",
            "I agree that I will not engage in any prohibited operations during the policy term. Click infopop (?) for a listing of prohibited operations*",
            "I agree that I will not engage in any Auto Liability prohibited commodities during the policy term. Click infopop (?) for a listing of prohibited commodities*",
            "I agree that I will not engage in any Motor Truck Cargo, Auto Physical Damage, or Truckers' General Liability prohibited commodities during the policy term. Click infopop (?) for a listing of prohibited commodities*",
            "I agree to partake in the DOT Compliance Training Program offered by Treaty Oak General Agency during the policy year*",
            "I agree to install, maintain, and make available video from a forward facing in cab camera during the policy year*",
            "I agree to notify my insurance agent if any changes are made to the driver list, power unit list, or trailer list provided herein*",
            "I agree that I will comply with an inspection of my operations to be conducted by Treaty Oak General Agency's designated inspection service*"
          ]
        },
        "bussinessInfoPage": {
          "retailAgencyList": [
            "Charles R. Myers Insurance (AGT015)",
            "McKinley & DiMarco Insurance Services (AGT017)",
            "Allegiance Insurance Services, LLC (AGT018)",
            "Jack Armstrong Insurance (AGT019)",
            "Border City Insurance Services Inc. (AGT020)",
            "Eagle Insurance (AGT021)",
            "Family Insurance & Multi Services (AGT022)",
            "G&S Insurance Solutions, LLC (AGT023)",
            "GIA, Associates (AGT024)",
            "HH Insurance Agency (AGT025)",
            "Insurance Leader Group Inc. (AGT026)",
            "Insurance Point (AGT027)",
            "Assured Partners of Texas LLC (AGT028)",
            "Southwest Insurance, LLC (AGT029)",
            "JLP Insurance Services (AGT030)",
            "Marlin Insurance Services (AGT031)",
            "Mesfin Tax & Insurance (AGT032)",
            "Navarro Insurance Agency (AGT033)",
            "Nevjestic Insurance Agency LLC (AGT034)",
            "Omega Insurance Services (AGT035)",
            "Ontiveros Insurance Group (AGT036)",
            "RoadGuard Insurance Services, Inc. (AGT040)",
            "Southwest Insurance Management (AGT044)",
            "TWI Agency Inc. (AGT045)",
            "Qualitas Insurance Agency, LLC (AGT046)",
            "White Glove Partners (AGT049)",
            "Villa Texas Insurance Services, LLC (AGT051)",
            "Alico Insurance Agency of Texas LLC (AGT052)",
            "Trucking Now Insurance Agency, LLC (AGT053)",
            "AMA United Transport Services (AGT055)",
            "Coldwater Insurance Agency, Inc. (AGT057)",
            "Danaco Group (AGT058)",
            "Tri-State Dealer Services, Inc. (AGT061)",
            "Rodriguez Insurance Agency LLC (AGT062)",
            "Prime Time Insurance Services LLC (AGT063)",
            "Commercial Asset Protectionals, LLC (AGT064)",
            "Cartier Insurance Group, LLC (AGT065)",
            "D&H Risk Services (AGT070)",
            "Alpha Insurance Services (AGT072)",
            "American Truck Insurance (AGT074)",
            "1st Patriot Insurance Services, LLC (AGT077)",
            "Treaty Oak General Agency (AGT078)",
            "Heitmann Agency LLC (AGT079)",
            "PNP Insurance Group Solutions LLC (AGT081)",
            "Volmert & Associates LLC (AGT082)",
            "Trucking Insurance Services of Texas (AGT083)",
            "Jennifer Haring Agency (AGT084)",
            "Risk Protection Managers, LLC (AGT086)",
            "All Risk, Ltd. (AGT089)",
            "SWZ Insurance (AGT090)",
            "Elite Auto Insurance (AGT091)",
            "Catherine M. Deulley (AGT092)",
            "Southeastern Insurance Associates (AGT094)",
            "Texas Insurance Service Center Inc. (AGT096)",
            "Anchorpoint Insurance Services (AGT097)",
            "Legacy Truck Insurance Agency LLC (AGT101)",
            "Bob White Insurance Agency LLC (AGT102)",
            "Accurance Insurance Services LLC (AGT103)",
            "Atco Insurance Services, Inc. (AGT105)",
            "MELS Insurance Agency LLC (AGT106)",
            "AG Multiservices LLC (AGT107)",
            "South Texas Insurance Agency Inc (AGT108)",
            "PC Insurance Agency LLC (AGT109)",
            "VL 17 Insurance Agency LLC (AGT110)",
            "Atlantic Risk Solutions, LLC (AGT111)",
            "Fino Company (AGT112)",
            "Texas Insurance Bureau Services LLC (AGT113)",
            "Got Coverage Inc. (AGT116)",
            "Hawk's Bay Insurance Group Inc (AGT118)",
            "A&F Insurance Group LLC (AGT119)",
            "Select Risk Services, Inc. (AGT120)",
            "Harmony Insurance Agency, Inc. (AGT121)",
            "My Trucking Agent (AGT123)",
            "Amera Insurance & Services Corp (AGT124)",
            "McMillan Insurance Group (AGT125)",
            "Supreme Insurance Agency LLC (AGT126)",
            "Act Trucking Insurance Brokers (AGT127)",
            "Cooper & Associates, Inc. (AGT128)",
            "Texas Insurance & Financial Services Inc (AGT129)",
            "Tropical Insurance Agency LLC (AGT136)",
            "Echo Insurance Agency (AGT137)",
            "Norte Insurance Services LLC (AGT138)",
            "CoAuto Insurance LLC (AGT139)",
            "Fisher Insurance Agency, Inc. (AGT143)",
            "AMO Insurance Agency, Inc (AGT144)",
            "People First Insurance Family (AGT145)",
            "Greenland Insurance Agency Inc (AGT146)",
            "Friends Insurance Agency II LLC (AGT148)",
            "Royale Insurance Agency, LLC (AGT151)",
            "Prestige International Insurance Group Inc (AGT152)",
            "H2O Commercial Insurance Agency Corp (AGT155)",
            "Stamos Insurance Agency (AGT167)",
            "RHW & JCW LLC (AGT168)",
            "MDA Insurance Services LLC (AGT169)",
            "Insuremart Inc (AGT171)",
            "Koonce Insurance Group (AGT173)",
            "AMC Agents LLC (AGT174)",
            "Whiterock Insurance Agency LLC (AGT175)",
            "Michael Farmer Insurance Agency (AGT177)",
            "Mario Cruz Insurance Agency Inc (AGT179)",
            "Eleodoro B Garza Insurance Agency (AGT181)",
            "SOS Financial Solutions LLC (AGT183)",
            "CCT Insurance Solutions (AGT186)",
            "Eagle National Insurance (AGT188)",
            "Palerm Insurance Agency LLC (AGT191)",
            "Protec Consulting Group LLC (AGT192)",
            "Premier U.S. Truck Insurance Group (AGT193)",
            "In Trucks Insurance Corp (AGT194)",
            "Benchmark Insurance Agency & Permit Center LLC (AGT195)",
            "Prosperity Insurance Agency LLC (AGT196)",
            "Keystone Southwest Insurance Agency Inc (AGT197)",
            "BC Armstrong Insurance LLC (AGT198)",
            "Keep On Trucking Insurance Services Inc (AGT200)",
            "AJM Insurance & Trucking Services LLC (AGT201)",
            "ASAP Insurance Company LLC (AGT202)",
            "North Country Insurance (AGT203)",
            "TEG Services Inc (AGT204)",
            "Marquee Insurance Group LLC (AGT206)",
            "OTR Risk Management (AGT207)",
            "Executive Insurance Agency (AGT208)",
            "Island Fleet Insurance Agency LLC (AGT209)",
            "D King Agency (AGT210)",
            "NFP Property & Casualty Services (AGT211)",
            "Varon Insurance Agency (AGT212)",
            "Cook Insurance Group LLC (AGT214)",
            "MVT Insurance Services Inc (AGT215)",
            "Compass Insurance Group Inc (AGT217)",
            "Premier Texas Choice LLC (AGT218)",
            "Tri County Independent Insurance Agency LLC (AGT219)",
            "A-1 Truck Insurance Group (AGT222)",
            "Firova Insurance-Group Fig, LLC (AGT225)",
            "Evo Insurance LLC (AGT226)",
            "Exellion Group LLC (AGT227)",
            "Meadors, Adams & Lee Inc (AGT228)",
            "Rev Insurance Agency LLC (AGT229)",
            "Throne Insurance & Financial Services LLC (AGT230)",
            "Vinsurance Services LLC (AGT231)",
            "Investors Insurance Agency (AGT232)",
            "Elite Insurance & Financial Services LLC (AGT234)",
            "Del Toro Insurance Agency (AGT235)",
            "Canaan Insurance Agency LLC (AGT236)",
            "Covenant Insurance Services LLC (AGT238)",
            "Vortex Commercial Insurance Services (AGT239)",
            "Wilson Insurance & Investment Group (AGT240)",
            "Trusted Insurance Group LLC (AGT242)",
            "The Risk Management Group Inc (AGT243)",
            "Maverick Truck Insurance (AGT245)",
            "Western States Insurance Group Inc (AGT246)",
            "Twins Insurance Group LLC (AGT247)",
            "Trusted Insurance Group LLC (AGT248)",
            "Supra Insurance Services LLC (AGT249)",
            "United Multi-Services Agency LLC (AGT250)",
            "Truck Insurance Hub LLC (AGT251)",
            "Jones Truck Insurance Agency Inc (AGT252)",
            "Pena Insurance Agency (AGT253)",
            "All Steps Insurance Services LLC (AGT254)",
            "Safety Insurance Agency LLC (AGT255)",
            "Transfleet Insurance Services (AGT256)",
            "Trident Insurance Corp (AGT257)",
            "Advisor Insurance Group (AGT258)",
            "M&V Tax Insurance Agency Inc (AGT259)",
            "Liz Insurance Agency (AGT260)",
            "Insurance Unlimited of Louisiana LLC (AGT262)",
            "Abraham & Associates PLLC (AGT263)",
            "Merit Insurance Services Inc (AGT264)",
            "Golden Hill Insurance (AGT265)",
            "Skholl International LLC (AGT266)",
            "Tigers Insurance Group LLC (AGT267)",
            "Lone Star Insurance Agency LLC (AGT268)",
            "Trucker's Retirement Plan, Inc (AGT269)",
            "Big Rig Insurance Services LLC (AGT270)",
            "Blackmon Commercial Insurance (AGT271)",
            "Brightline Insurance Services LLC (AGT272)",
            "Reyna Brown Insurance (AGT273)",
            "Tempo Insurance Group LLC (AGT274)",
            "Simplex Insurance Services (AGT275)",
            "Stagstone Risk Management LLC (AGT276)",
            "Habana First Rate Insurance LLC (AGT277)",
            "Soho Insurance Brokerage Inc (AGT278)",
            "Texas Insurance & Tax Center (AGT279)",
            "Quality Insurance Agency Inc (AGT280)",
            "Safeway Insurance Agency (AGT281)",
            "Perkins Insurance Agencies LLC (AGT282)",
            "Davis & Associates Insurance Agency LLC (AGT283)",
            "1st Patriot Risk Management LLC (AGT284)",
            "Palta Insurance Group (AGT285)",
            "Shamrock Insurance Agency (AGT287)",
            "Mark Moseley Agency (AGT288)",
            "Concord Commercial Trucking Insurance (AGT289)",
            "Triag Insurance LLP (AGT290)",
            "Hawk-INS Group (AGT291)",
            "Allied Insurance & Financial Svcs. (AGT294)",
            "De La Garza Insurance Group (AGT295)",
            "Saudia Anderson Ins Agency (AGT296)",
            "Resolute Insurance Group LLC (AGT297)",
            "Sky High Insurance Agency (AGT298)",
            "Renegade Insurance LLC (AGT299)",
            "Titan Insurance & Mortgage Service (AGT300)",
            "Thrive Commercial Onsurance Agency Inc (AGT301)",
            "Straightway Insurance LLC (AGT302)",
            "S&A Insurance (AGT303)",
            "Givesurance Insurance Service Inc (AGT305)",
            "Salty Dot Insurance Agency LLC (AGT306)",
            "Go Safe Agency (AGT307)",
            "Safeline Insurance Agency Inc (AGT308)",
            "Best Choice Trucking Insurance Group LLC (AGT309)",
            "Hotaling Insurance Services (AGT310)",
            "Agency 801 LLC (AGT311)",
            "West Texas Insurance Agency (AGT312)",
            "Top Flight Trucking Insurance Group LLC (AGT313)",
            "RPO Plus Trust Insurance LLC (AGT314)",
            "Buchanan Insurance Services Inc (AGT315)",
            "Gold Way Insurance Agency LLC (AGT316)",
            "Info Insurance Agency LLC (AGT317)",
            "Haymond Insurance Inc (AGT319)",
            "ATAB Insurance Services Inc. (AGT320)",
            "SIG Insurance Services LLC (AGT322)",
            "Truckin Central Agency Inc (AGT323)",
            "Lucila's Insurance Services LLC (AGT324)",
            "Ewall Insurance Company (AGT325)",
            "Armadillo Insurance Group (AGT326)",
            "Texas Specialty Underwriters Inc (AGT330)",
            "Rocklike Agency LLC (AGT331)"
          ],
          "agentNameList": [],
          "underwriterList":[
            "Andy Clymer (Andy)",
            "Charlie Halfen (Charlie)",
            "CogiAdmin (CogiAdmin)",
            "Cogitate (Cogitate)",
            "Dani Harris (Dani)",
            "Geoffrey Crater (Geoff)",
            "Iliana Martinez (Iliana)",
            "Karen Fisk (Karen)",
            "Kelly Hoskins (Kelly)",
            "Lisa Rawski (Lisa)",
            "Matt Young (Matt)",
            "Matt Young (MattTest)",
            "Milan Vukanac (Milan)",
            "Misty Middlebrook (Misty)",
            "Refugia Dubrule (Rea)",
            "Sandra Smithson (Sandra)",
            "Vanessa Ferreira (Vanessa)"
        ],
        "dotFieldLabel":"US DOT",
        "searchBtnTxt":"Search",
        "bussinessNameFieldLabel":"Business Name (Legal Name)*",
        "insuredTypeList":[
          "Individual",
          "LLC",
          "JV",
          "Corp"
      ],
      "firstNameFieldLabel":"First Name*",
      "middleNameFieldLabel":"Middle Name",
      "lastNameLabel":"Last Name*",
      "dbaLabel":"DBA",
      "bussinessDecriptionLabel":"Business Description*",
      "applicantSubsidiaryList":[
        "No",
        "Subsidiary",
        "Is a Subsidiary",
        "Both"
    ],
    "effectiveDateFieldLabel":"Effective Date of Coverage*",
    "policyPeriodDropdownLabel":"Policy Period*",
    "currentInsurancePolicyInfoLabel":"Current Insurance Policy Information*",
    "midTermLabel":"Is insured looking to move mid-term?*",
    "policyDeclineLabel":"Any policy or coverage declined, cancelled or non-renewed during the prior three (3) years?*",
    "motorCarrier":"Motor Carrier #",
    "yearInBussinessLabel":"Years In Business*",
    "ownershipChangedLabel":"Has there been any change in operations, ownership, or management in the past 3 years?*",
    "smsAlertList":["Select Alerts","0","1","2","3","4+"],
    "emailFieldLabel":"Email*",
    "phoneFieldLabel":"Phone #*",
    "addManuallySwitchBtnLabel":"Add Address Manually",
    "mailingAddressCheckboxLabel":"Mailing Address",
    "garagingAddressCheckboxLabel":"Garaging Address",
    "commodityList":[
      "Aircraft Parts",
      "Alcoholic Beverages",
      "Aluminum (Except when it is in bales)",
      "Aluminum Bales",
      "Amazon Freight (not last mile delivery)",
      "Antifreeze",
      "Appliances (small/household)",
      "Auto Haulers",
      "Auto Parts",
      "Automobiles",
      "Bailed Cotton",
      "Barite",
      "Batteries (only if not hazmat)",
      "Beer & Wine",
      "Bees",
      "Beverages (Non-Alcoholic)",
      "Boats",
      "Books",
      "Brake Fluid - packaged",
      "Bug Spray",
      "Building Materials (N.O.C.)",
      "Building Materials (Pipes/Lumber/Flat Steel)",
      "Bulk & Bagged Nuts",
      "Cannabis",
      "Canned Goods, non-perishables",
      "Car Bodies",
      "Cheese",
      "Chemicals (packaged or bulk)",
      "Cigars",
      "Clothing/Shoes (Not High Fashion)",
      "Coal",
      "Computers",
      "Concert Equipment (Sound Equipment/Stage)",
      "Containerized/Dry Freight",
      "Copper",
      "Cosmetics",
      "Cranes (not the bird)",
      "Crude Oil",
      "DVD/CD (blank/pre-recorded)",
      "Eggs",
      "Electronics",
      "Empty Car Hauling Trailers",
      "Farm (in bulk/packaged)",
      "Ferroalloys",
      "Fertilizer",
      "Fine Arts",
      "Flyers, leaflets, etc.",
      "Frac Sand",
      "Fresh Chicken (not love birds)",
      "Frozen Foods",
      "Full size Washer/Dryers (not household goods)",
      "Fur/Silk Garments",
      "Furniture (new)",
      "Furniture Delivered to Stores/Warehouses",
      "Garments (Not High Fashion)",
      "Gasoline & related petroleum products such as LPG or Propane",
      "General Freight",
      "Grain",
      "Granite/Marble",
      "Hanging Meat",
      "Hard Liquor",
      "Hardware",
      "Hay/Straw",
      "Hazardous material",
      "Hazmat",
      "High Fashion Clothing",
      "Home Deliveries",
      "Household Goods",
      "Industrial (in bulk)",
      "Intermodal General Freight",
      "Live Animals - Livestock",
      "Logging",
      "Logs, Pulpwood - not from the forest / only from a yard",
      "Lumber (finished)",
      "Machinery (light/heavy)",
      "Meat (fresh/frozen/boxed)",
      "Military Vehicles (if considered 'auto')",
      "Military Vehicles (if considered 'off road')",
      "Milk, Dairy products",
      "Mobile cranes or similar",
      "Mobile Homes",
      "Money, Currency and Bullion",
      "Motorcycles/ATVs",
      "Motors, Switches",
      "Office Equipment",
      "Owned Goods",
      "Paint (only if not hazmat)",
      "Palletized Chairs",
      "Paper Products - Paper Towels, Plates, Cups, Toilet Paper, etc.",
      "Parcels (FedEx/UPS)",
      "Perfume",
      "Periodicals, Plain Paper",
      "Plastic Products",
      "Pharmaceuticals",
      "Portable Buildings",
      "Poultry (dressed)",
      "Precious stones, jewelry or other similar valuable",
      "Prefab, Precast Metals",
      "Prepared Food",
      "Produce (non-refrigerated)",
      "Produce (refrigerated)",
      "Recreational Vehicles",
      "Recycled Metals",
      "Reefer Goods",
      "Refrigerated Food",
      "Rolled Materials",
      "RVs/Campers/Travel Trailers (Unless hauled in enclosed trailers)",
      "Sand and Gravel",
      "Scrap Metal",
      "Seafood",
      "Shellfish",
      "Soy or Nut Milks",
      "Sporting Goods",
      "Steel Coils",
      "Steel Tubing- packaged",
      "Steel, Iron, Pipe",
      "Tires",
      "Tissues, napkins",
      "Tobacco products",
      "Tools",
      "Toys",
      "Transformers & Jack Accessories",
      "Unprocessed Cowhide",
      "US Mail (not to individuals/residences/businesses)",
      "US Mail to homes and/or businesses",
      "Wax Bowl Rings"
  ],
  "hauledFieldLabel":"% Hauled*",
  "maximumValueFieldLabel":"Maximum Value*",
  "averageValueFieldLabel":"Average Value",
  "travellingOutStateBtnsLabel":"Will you be traveling out of your garaging state?*",
  "howOftenFieldLabel":"How Often*",
  "operationList":[
    "Auto Hauler",
    "Box",
    "Containerized",
    "Double Trailers",
    "Dry Van",
    "Flat Bed",
    "Freight",
    "Household Goods (Moving Company)",
    "Mobile Home",
    "Oversize/Overweight",
    "Refrigerated"
],
"majorCitiesTravelledFieldLabel":"Major Cities Travelled*",
"statesList":[
  "AL",
  "AK",
  "AZ",
  "AR",
  "CA",
  "CO",
  "CT",
  "DE",
  "DC",
  "FL",
  "GA",
  "HI",
  "ID",
  "IL",
  "IN",
  "IA",
  "KS",
  "KY",
  "LA",
  "ME",
  "MD",
  "MA",
  "MI",
  "MN",
  "MS",
  "MO",
  "MT",
  "NE",
  "NV",
  "NH",
  "NJ",
  "NM",
  "NY",
  "NC",
  "ND",
  "OH",
  "OK",
  "OR",
  "PA",
  "RI",
  "SC",
  "SD",
  "TN",
  "TX",
  "UT",
  "VT",
  "VA",
  "WA",
  "WV",
  "WI",
  "WY",
  "AS",
  "GU",
  "MP",
  "PR",
  "VI"
],
"radiusList":[
  "0-50 Miles",
  "51-200 Miles",
  "201-300 Miles",
  "301-500 Miles",
  "501-1,500 Miles",
  "1,500+ Miles"
],
"percentageFieldLabel":"Percentage*",
"backBtnTxt":"Back",
"saveForLaterBtnTxt":"Save For Later",
"nxtBtnTxt":"Next"
        },
        "vehicleinfoPage":{
          "url":"https://testapps.cogitate.us/toga/commercial/auto/application/vehicleinfo/",
          "vinFieldLabel":"Vehicle VIN*",
          "fetchBtnTxt":"Fetch Data",
          "vinBtnsLabel":"Override VIN*",
          "vehicleTypeList":[
            "Box Truck",
            "Pick Up",
            "Cargo Van",
            "Dump Truck",
            "Tow Truck",
            "Truck",
            "Truck-Tractor",
            "Trailer",
            "Service Trailer",
            "Utility Trailer"
        ],
        "vehicleTypeDropdownLabel":"Vehicle Type*",
        "yearDropdownLabel":"Year*",
        "yearsDropdownList":[
          "Select Year",
          "2025",
          "2024",
          "2023",
          "2022",
          "2021",
          "2020",
          "2019",
          "2018",
          "2017",
          "2016",
          "2015",
          "2014",
          "2013",
          "2012",
          "2011",
          "2010",
          "2009",
          "2008",
          "2007",
          "2006",
          "2005",
          "2004",
          "2003",
          "2002",
          "2001",
          "2000",
          "1999",
          "1998",
          "1997",
          "1996",
          "1995"
        ],
        "modelFieldLabel":"Model*",
        "statedValueFieldLabel":"Stated Value*",
        "estimatedMileageFieldLabel":"Estimated Annual Mileage*",
        "garagingAddressFieldLabel":"Garaging Location*",
        "vehicleOwnershipList":[
          "Owned",
          "Financed",
          "Leased",
          "Non-Owned"
      ]
        }
      },
      "loginPage": {
        "signinBtnTxt": "Sign In"
      }
    }
  }
}